{
  "status": "success",
  "code": 200,
  "message": "loaded successfully.",
  "data": {
    "product_title": "title_1",
    "product_image": "path",
    "product_code": "PRO-004124",
    "product_category_id": 32,
    "product_category_title": "category",
    "product_brand_id": 21,
    "product_brand_title": "brand",
    "product_unit": "Sq.Feet",
    "product_price": "5436.00",
    "product_price_country": "LKR",
    "product_description": "asfvsb f eds gshsh sfdhsfh sahsdh gshs yhdsa"
  }
}