{
  "status": "success",
  "code": 200,
  "message": "loaded successfully.",
  "data": {
    "category": [
      {
        "category_id": 2,
        "category_title": "category_1"
      },
      {
        "category_id": 2,
        "category_title": "category_1"
      },
      {
        "category_id": 2,
        "category_title": "category_1"
      },
      {
        "category_id": 2,
        "category_title": "category_1"
      },
      {
        "category_id": 2,
        "category_title": "category_1"
      }
    ],
    "brand": [
      {
        "brand_id": 2,
        "brand_title": "brand_1"
      },
      {
        "brand_id": 2,
        "brand_title": "brand_1"
      },
      {
        "brand_id": 2,
        "brand_title": "brand_1"
      },
      {
        "brand_id": 2,
        "brand_title": "brand_1"
      },
      {
        "brand_id": 2,
        "brand_title": "brand_1"
      }
    ],
    "products": [
      {
        "product_id": "pro-002543",
        "product_title": "Sample Product Name",
        "product_image": "http://lightnshade.com/wp-content/uploads/2017/03/Light-Shade-Curtains-Avic-Asotria-Apartment-3-700x466.jpg",
        "product_unit": "Sq.Feet",
        "product_price": "200.00",
        "product_price_country": "LKR",
        "product_brand": "brand",
        "product_category": "category"
      },
      {
        "product_id": "pro-002543",
        "product_title": "Sample Product Name",
        "product_image": "http://lightnshade.com/wp-content/uploads/2017/03/Light-Shade-Blinds-Dinemore-2-700x466.jpg",
        "product_unit": "Sq.Feet",
        "product_price": "200.00",
        "product_price_country": "LKR",
        "product_brand": "brand",
        "product_category": "category"
      },
      {
        "product_id": "pro-002543",
        "product_title": "Sample Product Name",
        "product_image": "http://lightnshade.com/wp-content/uploads/2017/03/Light-Shade-Commerical-Bank-700x466.jpg",
        "product_unit": "Sq.Feet",
        "product_price": "200.00",
        "product_price_country": "LKR",
        "product_brand": "brand",
        "product_category": "category"
      },
      {
        "product_id": "pro-002543",
        "product_title": "Sample Product Name",
        "product_image": "http://lightnshade.com/wp-content/uploads/2017/03/Gateway-Hotel-5-700x466.jpg",
        "product_unit": "Sq.Feet",
        "product_price": "200.00",
        "product_price_country": "LKR",
        "product_brand": "brand",
        "product_category": "category"
      },
      {
        "product_id": "pro-002543",
        "product_title": "Sample Product Name",
        "product_image": "http://lightnshade.com/wp-content/uploads/2017/03/Anantara-Maldives-1-1-700x466.jpg",
        "product_unit": "Sq.Feet",
        "product_price": "200.00",
        "product_price_country": "LKR",
        "product_brand": "brand",
        "product_category": "category"
      },
      {
        "product_id": "pro-002543",
        "product_title": "Sample Product Name",
        "product_image": "http://lightnshade.com/wp-content/uploads/2017/03/Calamansi-Hotel-3-700x466.jpg",
        "product_unit": "Sq.Feet",
        "product_price": "200.00",
        "product_price_country": "LKR",
        "product_brand": "brand",
        "product_category": "category"
      },
      {
        "product_id": "pro-002543",
        "product_title": "Sample Product Name",
        "product_image": "http://lightnshade.com/wp-content/uploads/2017/03/The-sands-1-700x466.jpg",
        "product_unit": "Sq.Feet",
        "product_price": "200.00",
        "product_price_country": "LKR",
        "product_brand": "brand",
        "product_category": "category"
      },
      {
        "product_id": "pro-002543",
        "product_title": "Sample Product Name",
        "product_image": "http://lightnshade.com/wp-content/uploads/2017/03/GalleFace-Hotel-6-2-700x466.jpg",
        "product_unit": "Sq.Feet",
        "product_price": "200.00",
        "product_price_country": "LKR",
        "product_brand": "brand",
        "product_category": "category"
      },
      {
        "product_id": "pro-002543",
        "product_title": "Sample Product Name",
        "product_image": "http://lightnshade.com/wp-content/uploads/2017/03/12950416_790678267731515_1013181226_n-1-700x466.jpg",
        "product_unit": "Sq.Feet",
        "product_price": "200.00",
        "product_price_country": "LKR",
        "product_brand": "brand",
        "product_category": "category"
      },
      {
        "product_id": "pro-002543",
        "product_title": "Sample Product Name",
        "product_image": "_",
        "product_unit": "Sq.Feet",
        "product_price": "200.00",
        "product_price_country": "LKR",
        "product_brand": "brand",
        "product_category": "category"
      },
      {
        "product_id": "pro-002543",
        "product_title": "Sample Product Name",
        "product_image": "_",
        "product_unit": "Sq.Feet",
        "product_price": "200.00",
        "product_price_country": "LKR",
        "product_brand": "brand",
        "product_category": "category"
      },
      {
        "product_id": "pro-002543",
        "product_title": "Sample Product Name",
        "product_image": "_",
        "product_unit": "Sq.Feet",
        "product_price": "200.00",
        "product_price_country": "LKR",
        "product_brand": "brand",
        "product_category": "category"
      }
    ]
  }
}